<?xml version="1.0" encoding="UTF-8"?>
<svg width="24px" height="9px" viewBox="0 0 24 9" version="1.1" xmlns="http://www.w3.org/2000/svg" xmlns:xlink="http://www.w3.org/1999/xlink">
    <title>Atoms/Utility/Arrow - Tertiary/Arrow Right@1x</title>
    <g id="//-UI-Kit" stroke="none" stroke-width="1" fill="none" fill-rule="evenodd">
        <g id="UIKit_V1-1" transform="translate(-717.000000, -10099.000000)" fill="#D63427">
            <g id="Group" transform="translate(717.000000, 10099.000000)">
                <g id="Arrow-Right" transform="translate(-0.671429, 0.000000)">
                    <path d="M3.07047347,3.719 L3.07047347,4.719 L1.44047347,4.71971837 C1.16433109,4.71971837 0.940473469,4.49586074 0.940473469,4.21971837 C0.940473469,3.97425848 1.11734863,3.77011 1.35059784,3.72777404 L1.44047347,3.71971837 L3.07047347,3.719 Z M6.07047347,3.719 L6.07047347,4.719 L4.57047347,4.719 L4.57047347,3.719 L6.07047347,3.719 Z M23.0323102,3.71971837 C23.3084526,3.71971837 23.5323102,3.94357599 23.5323102,4.21971837 C23.5323102,4.46517826 23.355435,4.66932674 23.1221858,4.7116627 L23.0323102,4.71971837 L7.57047347,4.719 L7.57047347,3.719 L23.0323102,3.71971837 Z" id="Combined-Shape"></path>
                    <path d="M19.3992219,0.670747696 C19.5608583,0.486020304 19.8284032,0.448856023 20.0318195,0.570590644 L20.1047625,0.623711653 L23.8598645,3.90942594 C24.0622322,4.08649762 24.0847175,4.38600665 23.9273204,4.59028663 L23.8598645,4.66200263 L20.1047625,7.94771692 C19.8969442,8.12955795 19.5810629,8.10849919 19.3992219,7.90068088 C19.2375854,7.71595348 19.2362648,7.44584299 19.3839243,7.26038625 L19.4462579,7.19514022 L22.771,4.286 L19.4462579,1.37628835 C19.2615305,1.21465188 19.2243662,0.94710704 19.3461008,0.743690698 L19.3992219,0.670747696 Z" id="Stroke-375"></path>
                </g>
            </g>
        </g>
    </g>
</svg>