<?xml version="1.0" encoding="UTF-8"?>
<svg width="16px" height="16px" viewBox="0 0 16 16" version="1.1" xmlns="http://www.w3.org/2000/svg" xmlns:xlink="http://www.w3.org/1999/xlink">
    <title>1A087E02-44AB-41DE-9DD3-FBC962745F27@1x</title>
    <g id="Navigation" stroke="none" stroke-width="1" fill="none" fill-rule="evenodd">
        <g id="M_Navigation_1.2-(1)" transform="translate(-29.000000, -123.000000)" fill="currentColor" fill-rule="nonzero">
            <g id="Search-Bar" transform="translate(0.000000, 111.000000)">
                <path d="M44.3666667,25.554023 L40.3,21.8452107 C41,20.8337165 41.4166667,19.6030651 41.4166667,18.2712644 C41.4166667,14.8153257 38.6333333,12 35.2,12 C31.7666667,12 29,14.8153257 29,18.2712644 C29,21.7440613 31.7833333,24.559387 35.2,24.559387 C36.5166667,24.559387 37.7333333,24.137931 38.7333333,23.4298851 L42.4,27.543295 C42.9333333,28.1501916 43.85,28.1670498 44.4166667,27.5938697 C44.9833333,27.0375479 44.9666667,26.0934866 44.3666667,25.554023 Z M35.2,22.9578544 C32.65,22.9578544 30.5833333,20.8505747 30.5833333,18.2712644 C30.5833333,15.691954 32.65,13.6015326 35.2,13.6015326 C37.75,13.6015326 39.8166667,15.691954 39.8166667,18.2712644 C39.8333333,20.8505747 37.75,22.9578544 35.2,22.9578544 Z" id="Shape"></path>
            </g>
        </g>
    </g>
</svg>