<?xml version="1.0" encoding="UTF-8"?>
<svg viewBox="0 0 102 102" version="1.1" xmlns="http://www.w3.org/2000/svg" xmlns:xlink="http://www.w3.org/1999/xlink">
  <path d="M34.6307502,32.1262561 L45.1629373,5.99040999 C47.30188,0.669863338 54.7014838,0.669863338 56.8404264,5.99040999 L67.3727754,32.1311153 L94.2458552,34.5520118 C99.8040626,35.0553862 101.9721,42.0375371 97.8914772,45.7401065 L77.3787379,64.3762195 L83.5385032,92.1577468 C84.7487284,97.6275088 78.884329,102.092587 74.0532106,99.0234365 L51.0039916,84.4467917 L27.9509745,99.0258357 C23.1105893,102.079357 17.2581685,97.61972 18.4698629,92.1560185 L24.629255,64.3761778 L4.11376977,45.7369718 C0.0311321626,42.0325741 2.19468572,35.0498172 7.75939692,34.5469968 L34.6307502,32.1262561 Z"></path>
</svg>
