<?xml version="1.0" encoding="UTF-8"?>
<svg width="20px" height="21px" viewBox="0 0 20 21" version="1.1" xmlns="http://www.w3.org/2000/svg" xmlns:xlink="http://www.w3.org/1999/xlink">
    <title>view_module-24px (1)@1x</title>
    <g id="Symbols" stroke="none" stroke-width="1" fill="none" fill-rule="evenodd">
        <g id="Moleculess/PDP/Gallery" transform="translate(-36.000000, -683.000000)">
            <g id="Arrows-+-Gallery-Button" transform="translate(0.000000, 612.972222)">
                <g id="view_module-24px-(1)" transform="translate(36.000000, 71.000000)">
                    <polygon id="Path" points="0 0 20 0 20 20 0 20"></polygon>
                    <path d="M3.82352941,9.07692308 L6.29411765,9.07692308 C6.74705882,9.07692308 7.11764706,8.69615385 7.11764706,8.23076923 L7.11764706,4.84615385 C7.11764706,4.38076923 6.74705882,4 6.29411765,4 L3.82352941,4 C3.37058824,4 3,4.38076923 3,4.84615385 L3,8.23076923 C3,8.69615385 3.37058824,9.07692308 3.82352941,9.07692308 Z M3.82352941,15 L6.29411765,15 C6.74705882,15 7.11764706,14.6192308 7.11764706,14.1538462 L7.11764706,10.7692308 C7.11764706,10.3038462 6.74705882,9.92307692 6.29411765,9.92307692 L3.82352941,9.92307692 C3.37058824,9.92307692 3,10.3038462 3,10.7692308 L3,14.1538462 C3,14.6192308 3.37058824,15 3.82352941,15 Z M8.76470588,15 L11.2352941,15 C11.6882353,15 12.0588235,14.6192308 12.0588235,14.1538462 L12.0588235,10.7692308 C12.0588235,10.3038462 11.6882353,9.92307692 11.2352941,9.92307692 L8.76470588,9.92307692 C8.31176471,9.92307692 7.94117647,10.3038462 7.94117647,10.7692308 L7.94117647,14.1538462 C7.94117647,14.6192308 8.31176471,15 8.76470588,15 Z M13.7058824,15 L16.1764706,15 C16.6294118,15 17,14.6192308 17,14.1538462 L17,10.7692308 C17,10.3038462 16.6294118,9.92307692 16.1764706,9.92307692 L13.7058824,9.92307692 C13.2529412,9.92307692 12.8823529,10.3038462 12.8823529,10.7692308 L12.8823529,14.1538462 C12.8823529,14.6192308 13.2529412,15 13.7058824,15 Z M8.76470588,9.07692308 L11.2352941,9.07692308 C11.6882353,9.07692308 12.0588235,8.69615385 12.0588235,8.23076923 L12.0588235,4.84615385 C12.0588235,4.38076923 11.6882353,4 11.2352941,4 L8.76470588,4 C8.31176471,4 7.94117647,4.38076923 7.94117647,4.84615385 L7.94117647,8.23076923 C7.94117647,8.69615385 8.31176471,9.07692308 8.76470588,9.07692308 Z M12.8823529,4.84615385 L12.8823529,8.23076923 C12.8823529,8.69615385 13.2529412,9.07692308 13.7058824,9.07692308 L16.1764706,9.07692308 C16.6294118,9.07692308 17,8.69615385 17,8.23076923 L17,4.84615385 C17,4.38076923 16.6294118,4 16.1764706,4 L13.7058824,4 C13.2529412,4 12.8823529,4.38076923 12.8823529,4.84615385 Z" id="Shape" fill="currentColor" fill-rule="nonzero"></path>
                </g>
            </g>
        </g>
    </g>
</svg>